{
    "version": "1.0.0",
    "data": "2021-01-26",
    "manitainer": "Li Jiahui",
    "shouldNotifyAFLocked": [
        "com.baidu.tieba",
        "com.viber.voip",
        "com.kbzbank.kpaycustomer",
        "com.pjbest.pjapp",
        "com.rd.tangdynasty",
        "com.best.android.laiqu",
        "com.mpt.dms",
        "asia.bluepay.clientin",
        "com.yonghui.cloud.merchant.assistant",
        "cn.com.servyou.servyougstax",
        "com.cmec.weietong",
        "com.bt.ycehome.ui",
        "com.zubattery.user",
        "com.whatsapp",
        "com.meituan.android.grocery.gms",
        "jp.naver.line.android"
    ],
    "shouldSkipReconfigure": [
        "com.skype.rover",
        "com.skype.raider",
        "com.tencent.wework",
        "jp.naver.linecamera.android",
        "com.picsart.studio",
        "com.eg.android.AlipayGphone",
        "com.linkedin.android",
        "dji.mimo",
        "com.ss.android.ugc.aweme",
        "com.tencent.mobileqq",
        "com.kwai.bulldog"
    ],
    "shouldDisablePartialCallback": [
        "com.whatsapp"
    ],
    "shouldForceCovertAFmode": [
        "com.mfw.roadbook",
        "com.dada.mobile.android",
        "com.ss.android.article.news",
        "com.sdu.didi.psnger",
        "com.hoperun.intelligenceportal"
    ],
    "shouldSkipCheckconfigureStream": [
        "com.vivo.facedetect.powerconsumetest",
        "android",
        "com.vivo.faceui",
        "com.vivo.irledtest",
        "com.vivo.camera2pd",
        "com.vivo.faceunlock",
        "test.com.vivo.yzz.cameratestforapi",
        "com.android.camera",
        "com.vivo.camera2",
        "com.vivo.vivoDress",
        "com.vivo.arruler",
        "com.vivo.engineercamera",
        "com.vivo.alphacamera",
        "com.snapchat.android"
    ],
    "shouldSkipVibrate": [
        "android",
        "com.bbk.facewake",
        "com.tencent.mm",
        "com.mediatek.ims"
    ]
}